Organellar genome(s)	VEuPathDB Project	Chromosomes	Supercontigs	Contigs	Available for community annotation	Genome Source	Genome Version/Assembly ID	Mega base Pairs	Structural Annotation Source	Structural Annotation Version	Is Reference Strain	NCBI taxon ID	Organism	Species	Strain	ChIP chip	EC#	ESTs	Genes	GO terms	Microarray	Non Protein coding genes	Orthologs	Popset Sequences	Protein coding genes	Proteomics	Pseudogenes	RNA Seq	RT-PCR	SNPs	TFBS	User comments	db	Downloaded file	Organism
no	FungiDB	0	0	3076	N/A	INSDC	GCA_000225285.2	46.72	N/A	N/A	yes	1035635	Epichloe glyceriae E277	Epichloe glyceriae	E277	N/A	N/A	N/A	N/A	N/A	N/A	0	N/A	N/A	0	N/A	0	N/A	N/A	N/A	N/A	N/A	FungiDb	FungiDB-58_EglyceriaeE277_Genome.fasta	Epichloe glyceriae E277
no	FungiDB	0	1314	0	Apollo	JGI	1	77.97	JGI	1	yes	1048749	Phytophthora cinnamomi var. cinnamomi CBS 144.22	Phytophthora cinnamomi	var. cinnamomi CBS 144.22	N/A	N/A	N/A	26201	8315	N/A	70	26131	73825	26131	N/A	10	N/A	N/A	N/A	N/A	N/A	FungiDb	FungiDB-58_PcinnamomiCBS144-22_Genome.fasta	Phytophthora cinnamomi var. cinnamomi CBS 144.22
no	FungiDB	0	246	0	Apollo	GenBank	GCA_001890105.1	44830	GenBank	Dec 08, 2016	yes	1073090	Penicilliopsis zonata CBS 506.65	Penicilliopsis zonata	CBS 506.65	N/A	1274	N/A	10027	6960	N/A	158	9869	27	9869	N/A	3	N/A	N/A	N/A	N/A	N/A	FungiDb	FungiDB-58_PzonataCBS506.65_Genome.fasta	Penicilliopsis zonata CBS 506.65
no	FungiDB	0	418	0	N/A	GenBank	GCA_000260195.2	46.55	GenBank	Mar 23, 2015	no	1089451	Fusarium odoratissimum NRRL 54006	Fusarium odoratissimum	NRRL 54006	N/A	1677	N/A	16975	10224	N/A	341	16634	119777	16634	N/A	7	N/A	N/A	N/A	N/A	N/A	FungiDb	FungiDB-58_FodoratissimumNRRL54006_Genome.fasta	Fusarium odoratissimum NRRL 54006
no	FungiDB	0	82	0	Apollo	GenBank	GCA_000149755.2	82.6	GenBank	Mar 14, 2015	yes	1094619	Phytophthora sojae strain P6497	Phytophthora sojae	strain P6497	N/A	1551	N/A	28142	9258	N/A	1653	26489	85337	26489	N/A	0	28142	N/A	N/A	N/A	14	FungiDb	FungiDB-58_PsojaeP6497_Genome.fasta	Phytophthora sojae strain P6497
no	FungiDB	0	390	0	Apollo	GenBank	GCA_000281045.1	62.89	GenBank	Mar 19, 2015	yes	1156394	Saprolegnia diclina VS20	Saprolegnia diclina	VS20	N/A	1364	N/A	17448	11145	N/A	89	17359	1328	17359	N/A	0	N/A	N/A	N/A	N/A	2	FungiDb	FungiDB-58_SdiclinaVS20_Genome.fasta	Saprolegnia diclina VS20
no	FungiDB	0	1774	0	Apollo	GenBank	GCA_000387445.2	35.88	Ensembl	Mar 02, 2016	yes	1223555	Pythium aphanidermatum DAOM BR444	Pythium aphanidermatum	DAOM BR444	N/A	749	N/A	12363	6409	N/A	58	12305	5220	12305	N/A	0	N/A	N/A	N/A	N/A	N/A	FungiDb	FungiDB-58_PaphanidermatumDAOMBR444_Genome.fasta	Pythium aphanidermatum DAOM BR444
no	FungiDB	0	10972	0	Apollo	GenBank	GCA_000387505.2	44.67	Ensembl	Mar 02, 2016	yes	1223556	Pythium arrhenomanes ATCC 12531	Pythium arrhenomanes	ATCC 12531	N/A	759	N/A	13857	6943	N/A	52	13805	566	13805	N/A	0	N/A	N/A	N/A	N/A	N/A	FungiDb	FungiDB-58_ParrhenomanesATCC12531_Genome.fasta	Pythium arrhenomanes ATCC 12531
no	FungiDB	0	5887	0	Apollo	GenBank	GCA_000387425.2	42.97	Ensembl	Mar 02, 2016	yes	1223557	Globisporangium irregulare DAOM BR486	Globisporangium irregulare	DAOM BR486	N/A	774	N/A	13869	6997	N/A	65	13804	529	13804	N/A	0	N/A	N/A	N/A	N/A	N/A	FungiDb	FungiDB-58_GirregulareDAOMBR486_Genome.fasta	Globisporangium irregulare DAOM BR486
no	FungiDB	0	11542	0	Apollo	GenBank	GCA_000387465.2	43.2	MSU	41862	yes	1223558	Globisporangium iwayamae DAOM BR242034	Globisporangium iwayamae	DAOM BR242034	N/A	754	N/A	14874	6977	N/A	0	14874	538	14874	N/A	0	N/A	N/A	N/A	N/A	1	FungiDb	FungiDB-58_GiwayamaeDAOMBR242034_Genome.fasta	Globisporangium iwayamae DAOM BR242034
no	FungiDB	0	5482	0	N/A	GenBank	GCA_000387525.2	37.63	MSU	41862	no	1223559	Globisporangium ultimum var. sporangiiferum BR650	Globisporangium ultimum	var. sporangiiferum BR650	N/A	714	N/A	14086	6293	N/A	0	14086	503	14086	N/A	0	N/A	N/A	N/A	N/A	N/A	FungiDb	FungiDB-58_GultimumBR650_Genome.fasta	Globisporangium ultimum var. sporangiiferum BR650
no	FungiDB	0	3685	0	Apollo	GenBank	GCA_000387545.2	33.84	MSU	41862	yes	1223560	Phytopythium vexans DAOM BR484	Phytopythium vexans	DAOM BR484	N/A	739	N/A	11991	6546	N/A	34	11957	152	11957	N/A	0	N/A	N/A	N/A	N/A	N/A	FungiDb	FungiDB-58_PvexansDAOMBR484_Genome.fasta	Phytopythium vexans DAOM BR484
no	FungiDB	21	0	0	N/A	INSDC	GCA_900184105.1	40.66	GenBank	Jun 17, 2020	no	1276537	Zymoseptoria tritici ST99CH_3D1	Zymoseptoria tritici	ST99CH_3D1	N/A	1	6328	11991	5888	N/A	0	11991	1157	11991	N/A	0	N/A	N/A	N/A	N/A	N/A	FungiDb	FungiDB-58_ZtriticiST99CH3D1_Genome.fasta	Zymoseptoria tritici ST99CH_3D1
no	FungiDB	0	12	0	Apollo	GenBank	GCA_000512585.2	24.36	GenBank	Jul 20, 2016	yes	1296100	Kwoniella bestiolae CBS 10118	Kwoniella bestiolae	CBS 10118	N/A	943	N/A	9270	5698	N/A	137	9133	241	9133	N/A	0	N/A	N/A	N/A	N/A	N/A	FungiDb	FungiDB-58_KbestiolaeCBS10118_Genome.fasta	Kwoniella bestiolae CBS 10118
no	FungiDB	0	242	0	Apollo	GenBank	GCA_000507425.3	25.25	GenBank	Jul 20, 2016	yes	1296119	Kwoniella heveanensis CBS 569	Kwoniella heveanensis	CBS 569	N/A	917	N/A	8002	5312	N/A	131	7871	220	7871	N/A	0	N/A	N/A	N/A	N/A	N/A	FungiDb	FungiDB-58_KheveanensisCBS569_Genome.fasta	Kwoniella heveanensis CBS 569
no	FungiDB	0	13	0	Apollo	GenBank	GCA_000512565.2	23.86	GenBank	Jun 22, 2016	yes	1296121	Kwoniella dejecticola CBS 10117	Kwoniella dejecticola	CBS 10117	N/A	935	N/A	8724	5586	N/A	122	8602	238	8602	N/A	0	N/A	N/A	N/A	N/A	N/A	FungiDb	FungiDB-58_KdejecticolaCBS10117_Genome.fasta	Kwoniella dejecticola CBS 10117
no	FungiDB	0	62	0	Apollo	INSDC	GCA_000507465.3	22.65	GenBank	42571	yes	1296122	Kwoniella mangroviensis CBS 8507	Kwoniella mangrovensis	CBS8507	N/A	N/A	N/A	8555	4548	N/A	133	8422	240	8422	N/A	5	N/A	N/A	N/A	N/A	N/A	FungiDb	FungiDB-58_KmangroviensisCBS8507_Genome.fasta	Kwoniella mangroviensis CBS 8507
yes	FungiDB	13	0	0	Apollo	GenBank	GCA_000002545.2	12.34	CGD	s02-m07-r27	yes	284593	Candida glabrata CBS 138	[Candida] glabrata	CBS138	N/A	953	11	5615	5298	N/A	322	5293	92033	5293	N/A	18	5615	N/A	N/A	N/A	7	FungiDb	FungiDB-58_CglabrataCBS138_Genome.fasta	Candida glabrata CBS 138
no	FungiDB	0	376	0	Apollo	GenBank	GCA_000149645.3	31.67	GenBank	Jul 14, 2016	yes	331117	Aspergillus fischeri NRRL 181	Aspergillus fischeri	NRRL 181	N/A	1483	N/A	10669	7989	N/A	279	10390	45765	10390	N/A	26	N/A	N/A	N/A	N/A	1	FungiDb	FungiDB-58_AfischeriNRRL181_Genome.fasta	Aspergillus fischeri NRRL 181
no	FungiDB	0	4921	0	Apollo	GenBank	GCA_000142945.1	228.54	GenBank	Mar 12, 2015	yes	403677	Phytophthora infestans T30-4	Phytophthora infestans	T30-4	N/A	1467	10371	19344	10026	N/A	1547	17797	80650	17797	N/A	3	N/A	N/A	N/A	N/A	7	FungiDb	FungiDB-58_PinfestansT30-4_Genome.fasta	Phytophthora infestans T30-4
yes	FungiDB	9	0	0	N/A	INSDC	GCA_003691605.1	7.3	GenBank	Oct 29, 2018	no	425264	Malassezia restricta CBS 7877	Malassezia restricta	CBS 7877	N/A	1265	N/A	4155	3402	N/A	59	4096	5743	4096	N/A	0	N/A	N/A	N/A	N/A	N/A	FungiDb	FungiDB-58_MrestrictaCBS7877_Genome.fasta	Malassezia restricta CBS 7877
no	FungiDB	0	49	0	Apollo	GenBank	GCA_000226395.1	32.22	Ensembl	Feb 01, 2015	yes	500485	Penicillium rubens Wisconsin 54-1255	Penicillium rubens	Wisconsin 54-1255	N/A	1453	N/A	14021	7809	N/A	1464	12557	32583	12557	N/A	1	N/A	N/A	N/A	N/A	N/A	FungiDb	FungiDB-58_PrubensWisconsin54-1255_Genome.fasta	Penicillium rubens Wisconsin 54-1255
no	FungiDB	0	103	0	Apollo	INSDC	GCA_000003855.2	75.4	GenBank	Jun 02, 2016	yes	559298	Blastomyces gilchristii SLH14081	Blastomyces gilchristii	SLH14081	N/A	1091	N/A	10148	5806	N/A	456	9692	840	9692	N/A	306	N/A	N/A	N/A	N/A	N/A	FungiDb	FungiDB-58_BgilchristiiSLH14081_Genome.fasta	Blastomyces gilchristii SLH14081
no	FungiDB	0	3044	0	Apollo	GenBank	GCA_000173235.2	78.9	Ensembl	Mar 02, 2016	yes	559515	Hyaloperonospora arabidopsidis Emoy2	Hyaloperonospora arabidopsidis	Emoy2	N/A	1029	N/A	14267	6179	N/A	285	13982	564	13982	N/A	0	14267	N/A	N/A	N/A	N/A	FungiDb	FungiDB-58_HarabidopsidisEmoy2_Genome.fasta	Hyaloperonospora arabidopsidis Emoy2
no	FungiDB	7	0	0	Apollo	INSDC	GCA_000226095.1	38.74	GenBank	Sep 02, 2014	yes	573729	Thermothelomyces thermophilus ATCC 42464	Thermothelomyces thermophilus	ATCC 42464	N/A	1189	4396	9292	6070	N/A	195	9097	94	9097	N/A	3	N/A	N/A	N/A	N/A	N/A	FungiDb	FungiDB-58_TthermophilusATCC42464_Genome.fasta	Thermothelomyces thermophilus ATCC 42464
yes	FungiDB	0	513	0	Apollo	INSDC	GCA_000145635.1	43.77	GenBank	Mar 13, 2015	yes	644352	Gaeumannomyces tritici R3-111a-1	Gaeumannomyces tritici	R3-111a-1	N/A	1006	N/A	14749	7746	N/A	291	14458	8552	14458	N/A	80	N/A	N/A	N/A	N/A	N/A	FungiDb	FungiDB-58_GtriticiR3-111a-1_Genome.fasta	Gaeumannomyces tritici R3-111a-1
yes	FungiDB	0	1442	0	Apollo	GenBank	GCA_000151545.2	53.13	GenBank	Mar 23, 2015	yes	695850	Saprolegnia parasitica CBS 223.65	Saprolegnia parasitica	CBS 223.65	N/A	1440	849	20435	12261	N/A	314	20121	4549	20121	N/A	0	N/A	N/A	N/A	N/A	3	FungiDb	FungiDB-58_SparasiticaCBS223-65_Genome.fasta	Saprolegnia parasitica CBS 223.65
no	FungiDB	0	708	0	Apollo	GenBank	GCA_000247585.2	82.39	GenBank	Mar 23, 2015	yes	761204	Phytophthora parasitica INRA-310	Phytophthora parasitica	INRA-310	N/A	1435	4071	23240	10599	N/A	119	23121	88611	23121	N/A	0	N/A	N/A	N/A	N/A	N/A	FungiDb	FungiDB-58_PparasiticaINRA-310_Genome.fasta	Phytophthora parasitica INRA-310
no	FungiDB	0	782	0	N/A	INSDC	GCA_016618375.1	94.18	GenBank	Jan 12, 2021	yes	763924	Phytophthora capsici LT1534	Phytophthora capsici	LT1534	N/A	5	6693	28579	10194	N/A	5206	23373	67508	23373	N/A	0	N/A	N/A	N/A	N/A	N/A	FungiDb	FungiDB-58_PcapsiciLT1534_Genome.fasta	Phytophthora capsici LT1534
yes	FungiDB	7	0	0	N/A	INSDC	GCA_003814445.1	35.02	N/A	N/A	yes	877507	Epichloe festucae Fl1	Epichloe festucae	Fl1	N/A	N/A	N/A	N/A	N/A	N/A	0	N/A	N/A	0	N/A	0	N/A	N/A	N/A	N/A	N/A	FungiDb	FungiDB-58_EfestucaeFl1_Genome.fasta	Epichloe festucae Fl1
no	FungiDB	0	3827	0	Apollo	Ensembl	Mar 02, 2016	32.77	Ensembl	Mar 02, 2016	yes	890382	Albugo laibachii Nc14	Albugo laibachii	Nc14	N/A	837	N/A	14629	5717	N/A	180	13805	166	14449	N/A	644	N/A	N/A	N/A	N/A	N/A	FungiDb	FungiDB-58_AlaibachiiNc14_Genome.fasta	Albugo laibachii Nc14
no	FungiDB	0	252	0	Apollo	Saskatchewan	41772	34.56	Saskatchewan	41772	yes	911350	Albugo candida 2VRR	Albugo candida	2VRR	N/A	N/A	5671	15896	4485	N/A	72	15824	2	15824	N/A	4	N/A	N/A	N/A	N/A	N/A	FungiDb	FungiDB-58_Acandida2VRR_Genome.fasta	Albugo candida 2VRR
no	FungiDB	0	835	0	Apollo	GenBank	GCA_000520075.1	75.84	GenBank	Jan 14, 2014	yes	N/A	Aphanomyces astaci strain APO3	Aphanomyces astaci	strain APO3	N/A	1389	N/A	19584	10477	N/A	465	19119	4158	19119	N/A	0	N/A	N/A	N/A	N/A	3	FungiDb	FungiDB-58_AastaciAPO3_Genome.fasta	Aphanomyces astaci strain APO3
no	FungiDB	0	14	0	Apollo	INSDC	GCA_004000055.1	36.65	GenBank	Jan 08, 2019	yes	N/A	Arthrobotrys flagrans CBS H-5679	Arthrobotrys flagrans	CBS H-5679	N/A	915	N/A	9927	6195	N/A	30	9897	424	9897	N/A	0	N/A	N/A	N/A	N/A	N/A	FungiDb	FungiDB-58_AflagransCBSH-5679_Genome.fasta	Arthrobotrys flagrans CBS H-5679
no	FungiDB	0	481	0	Apollo	GenBank	GCA_000520115.1	71.4	GenBank	Jan 15, 2014	yes	N/A	Aphanomyces invadans NJM9701	Aphanomyces invadans	NJM9701	N/A	1300	N/A	15416	9228	N/A	168	15248	3843	15248	N/A	0	N/A	N/A	N/A	N/A	3	FungiDb	FungiDB-58_AinvadansNJM9701_Genome.fasta	Aphanomyces invadans NJM9701
no	FungiDB	0	61	0	N/A	INSDC	GCA_001598995.1	24.87	N/A	N/A	yes	N/A	Apiotrichum montevideense JCM 9937	Apiotrichum montevideense	JCM 9937	N/A	N/A	N/A	N/A	N/A	N/A	0	N/A	N/A	0	N/A	0	N/A	N/A	N/A	N/A	N/A	FungiDb	FungiDB-58_AmontevideenseJCM9937_Genome.fasta	Apiotrichum montevideense JCM 9937
no	FungiDB	0	0	3075	N/A	GenBank	GCA_001430935.1	30.38	n/a	n/a	yes	N/A	Amauroascus mutatus isolate UAMH 3576	Amauroascus mutatus	isolate UAMH 3576	N/A	N/A	N/A	N/A	N/A	N/A	0	N/A	N/A	0	N/A	0	N/A	N/A	N/A	N/A	N/A	FungiDb	FungiDB-58_AmutatusUAMH3576_Genome.fasta	Amauroascus mutatus isolate UAMH 3576
no	FungiDB	0	0	3481	N/A	GenBank	GCA_001430945.1	36.72	n/a	n/a	yes	N/A	Amauroascus niger isolate UAMH 3544	Amauroascus niger	isolate UAMH 3544	N/A	N/A	N/A	N/A	N/A	N/A	0	N/A	N/A	0	N/A	0	N/A	N/A	N/A	N/A	N/A	FungiDb	FungiDB-58_AmnigerUAMH3544_Genome.fasta	Amauroascus niger isolate UAMH 3544
no	FungiDB	0	411	0	N/A	INSDC	GCA_002749535.1	39.32	N/A	N/A	yes	N/A	Apophysomyces variabilis NCCPF 102052	Apophysomyces variabilis	NCCPF 102052	N/A	N/A	N/A	N/A	N/A	N/A	0	N/A	N/A	0	N/A	0	N/A	N/A	N/A	N/A	N/A	FungiDb	FungiDB-58_AvariabilisNCCPF102052_Genome.fasta	Apophysomyces variabilis NCCPF 102052
no	FungiDB	0	0	4851	N/A	GenBank	GCA_001430925.1	27.45	n/a	n/a	yes	N/A	Byssoonygena ceratinophila isolate UAMH 5669	Byssoonygena ceratinophila	isolate UAMH 5669	N/A	N/A	N/A	N/A	N/A	N/A	0	N/A	N/A	0	N/A	0	N/A	N/A	N/A	N/A	N/A	FungiDb	FungiDB-58_BceratinophilaUAMH5669_Genome.fasta	Byssoonygena ceratinophila isolate UAMH 5669
no	FungiDB	0	121	0	Apollo	INSDC	GCA_004359215.1	115.9	GenBank	Mar 19, 2019	yes	N/A	Bremia lactucae strain SF5	Bremia lactucae	strain SF5	N/A	740	N/A	9767	5657	N/A	0	9767	263	9767	N/A	0	N/A	N/A	N/A	N/A	N/A	FungiDb	FungiDB-58_BlactucaeSF5_Genome.fasta	Bremia lactucae strain SF5
no	FungiDB	0	99	0	N/A	INSDC	GCA_001189475.1	12.5	GenBank	Aug 04, 2017	no	N/A	Candida auris strain 6684	[Candida] auris	6684	N/A	821	N/A	8301	3953	N/A	840	7461	18300	7461	N/A	8	N/A	N/A	N/A	N/A	N/A	FungiDb	FungiDB-58_Cauris6684_Genome.fasta	Candida auris strain 6684
yes	FungiDB	0	0	7	Apollo	GenBank	GCA_002926085.1	12.58	GenBank	May 01, 2018	yes	N/A	Candida duobushaemulonis strain B09383	[Candida] duobushaemulonis	B09383	N/A	852	N/A	5329	4025	N/A	156	5173	8574	5173	N/A	0	N/A	N/A	N/A	N/A	N/A	FungiDb	FungiDB-58_CduobushaemulonisB09383_Genome.fasta	Candida duobushaemulonis strain B09383
yes	FungiDB	0	0	11	Apollo	GenBank	GCA_002926055.1	13.31	GenBank	May 01, 2018	yes	N/A	Candida haemulonis B11899	[Candida] haemuloni	B11899	N/A	852	N/A	5409	4092	N/A	160	5249	8896	5249	N/A	0	N/A	N/A	1811	N/A	N/A	FungiDb	FungiDB-58_ChaemulonisB11899_Genome.fasta	Candida haemulonis B11899
no	FungiDB	0	9	0	Apollo	INSDC	GCA_017655625.1	44817	GenBank	Apr 01, 2021	yes	N/A	Candida metapsilosis BP57	Candida metapsilosis	BP57	N/A	N/A	N/A	5743	3885	N/A	17	5726	10939	5726	N/A	17	N/A	N/A	N/A	N/A	N/A	FungiDb	FungiDB-58_CmetapsilosisBP57_Genome.fasta	Candida metapsilosis BP57
no	FungiDB	0	36	0	Apollo	INSDC	GCA_003013735.1	12.59	GenBank	Mar 03, 2018	yes	N/A	Candida pseudohaemulonii strain B12108	[Candida] pseudohaemulonis	B12108	N/A	843	N/A	5285	4005	N/A	151	5134	23601	5134	N/A	0	N/A	N/A	N/A	N/A	N/A	FungiDb	FungiDB-58_CpseudohaemuloniiB12108_Genome.fasta	Candida pseudohaemulonii strain B12108
no	FungiDB	0	0	2724	N/A	GenBank	GCA_001430955.1	32.34	n/a	n/a	yes	N/A	Chrysosporium queenslandicum isolate CBS 280.77	Chrysosporium queenslandicum	isolate CBS 280.77	N/A	N/A	N/A	N/A	N/A	N/A	0	N/A	N/A	0	N/A	0	N/A	N/A	N/A	N/A	N/A	FungiDb	FungiDB-58_CqueenslandicumCBS280.77_Genome.fasta	Chrysosporium queenslandicum isolate CBS 280.77
no	FungiDB	0	169	0	Apollo	INSDC	GCA_008704595.1	13.45	GenBank	Sep 26, 2019	yes	N/A	Diutina rugosa CBS 613	Diutina rugosa	CBS 613	N/A	658	N/A	5819	4189	N/A	4	5815	74	5815	N/A	4	N/A	N/A	N/A	N/A	N/A	FungiDb	FungiDB-58_DrugosaCBS613_Genome.fasta	Diutina rugosa CBS 613
no	FungiDB	0	4444	0	Apollo	INSDC	GCA_001660665.1	29.71	GenBank	Jun 09, 2016	yes	N/A	Emergomyces africanus CBS 136260	Emergomyces africanus	CBS 136260	N/A	858	N/A	8860	5773	N/A	91	8769	55	8769	N/A	2	N/A	N/A	N/A	N/A	N/A	FungiDb	FungiDB-58_EafricanusCBS136260_Genome.fastav	Emergomyces africanus CBS 136260
no	FungiDB	0	108	0	N/A	INSDC	GCA_002110485.1	35.5	N/A	N/A	yes	N/A	Emergomyces orientalis 5z489	Emergomyces orientalis	5z489	N/A	N/A	N/A	N/A	N/A	N/A	0	N/A	N/A	0	N/A	0	N/A	N/A	N/A	N/A	N/A	FungiDb	FungiDB-58_Eorientalis5z489_Genome.fasta	Emergomyces orientalis 5z489
no	FungiDB	0	1223	0	Apollo	INSDC	GCA_013396185.1	42.62	GenBank	44022	yes	N/A	Fusarium circinatum NRRL 25331	Fusarium circinatum	NRRL 25331	N/A	N/A	8	13905	7721	N/A	0	13905	113504	13905	N/A	0	N/A	N/A	N/A	N/A	N/A	FungiDb	FungiDB-58_FcircinatumNRRL25331_Genome.fasta	Fusarium circinatum NRRL 25331
no	FungiDB	0	116756	0	N/A	INSDC	GCA_004125335.1	543.61	N/A	N/A	yes	N/A	Hemileia vastatrix Race XXXIII	Hemileia vastatrix	Race XXXIII	N/A	N/A	N/A	N/A	N/A	N/A	0	N/A	N/A	0	N/A	0	N/A	N/A	N/A	N/A	N/A	FungiDb	FungiDB-58_HvastatrixRaceXXXIII_Genome.fasta	Hemileia vastatrix Race XXXIII
no	FungiDB	0	0	74	N/A	GenBank	GCA_001599735.1	20.7	n/a	n/a	no	N/A	Naganishia albida JCM2334	Naganishia albida	JCM2334	N/A	N/A	N/A	N/A	N/A	N/A	0	N/A	N/A	0	N/A	0	N/A	N/A	N/A	N/A	N/A	FungiDb	FungiDB-58_NalbidaJCM2334_Genome.fasta	Naganishia albida JCM2334
no	FungiDB	0	33	0	Apollo	INSDC	GCA_017788925.1	7.38	GenBank	Apr 05, 2021	yes	N/A	Pneumocystis canis CanA	Pneumocystis canis	CanA	N/A	N/A	N/A	3113	2317	N/A	38	3075	10704	3075	N/A	0	N/A	N/A	N/A	N/A	N/A	FungiDb	FungiDB-58_PcanisCanA_Genome.fasta	Pneumocystis canis CanA
no	FungiDB	0	784	0	Apollo	INSDC	GCA_003843895.1	32.16	GenBank	43431	yes	N/A	Peronospora effusa R13	Peronospora effusa	R13	N/A	692	N/A	8603	5447	N/A	0	8603	566	8603	N/A	0	N/A	N/A	N/A	N/A	N/A	FungiDb	FungiDB-58_PeffusaR13_Genome.fasta	Peronospora effusa R13
no	FungiDB	16	3	0	Apollo	INSDC	GCA_018127085.1	8.27	GenBank	Apr 23, 2021	yes	N/A	Pneumocystis sp. macacae isolate P2C	Pneumocystis sp. 'macacae'	P2C	N/A	N/A	N/A	3427	2310	N/A	37	3390	10623	3390	N/A	0	N/A	N/A	682	N/A	N/A	FungiDb	FungiDB-58_PmacacaeP2C_Genome.fasta	Pneumocystis sp. macacae isolate P2C
no	FungiDB	0	38	0	Apollo	INSDC	GCA_017311285.1	7.64	GenBank	Mar 09, 2021	yes	N/A	Pneumocystis oryctolagi CS1	Pneumocystis oryctolagi	CS1	N/A	1	N/A	2856	2141	N/A	0	2856	9795	2856	N/A	0	N/A	N/A	N/A	N/A	N/A	FungiDb	FungiDB-58_PoryctolagiCS1_Genome.fasta	Pneumocystis oryctolagi CS1
no	FungiDB	0	0	24809	Apollo	GenBank	GCA_002911725.1	107.77	GenBank	Feb 02, 2018	yes	N/A	Phytophthora palmivora var. palmivora strain sbr112.9	Phytophthora palmivora	var. palmivora strain sbr112.9	N/A	1616	N/A	28185	8972	N/A	3511	24674	54020	24674	N/A	35	N/A	N/A	N/A	N/A	N/A	FungiDb	FungiDB-58_Ppalmivorasbr112.9_Genome.fasta	Phytophthora palmivora var. palmivora strain sbr112.9
no	FungiDB	0	0	1897	N/A	GenBank	GCA_002247145.1	40.44	GenBank	Aug 11, 2017	yes	N/A	Phytophthora plurivora AV1007	Phytophthora plurivora	AV1007	N/A	N/A	N/A	N/A	N/A	N/A	0	N/A	N/A	0	N/A	0	N/A	N/A	N/A	N/A	N/A	FungiDb	FungiDB-58_PplurivoraAV1007_Genome.fasta	Phytophthora plurivora AV1007
no	FungiDB	0	2576	0	Apollo	GenBank	GCA_000149735.1	66.65	JGI	44562	yes	N/A	Phytophthora ramorum strain Pr102	Phytophthora ramorum	strain Pr102	N/A	1272	N/A	15743	8572	N/A	251	15492	81901	15492	N/A	251	15743	N/A	N/A	N/A	N/A	FungiDb	FungiDB-58_PramorumPr-102_Genome.fasta	Phytophthora ramorum strain Pr102
no	FungiDB	0	15715	0	Apollo	INSDC	GCA_001263375.1	99.53	GenBank	Aug 19, 2015	yes	N/A	Puccinia sorghi strain RO10H11247	Puccinia sorghi	strain RO10H11247	N/A	755	N/A	21769	7991	N/A	691	21078	23373	21078	N/A	157	N/A	N/A	N/A	N/A	N/A	FungiDb	FungiDB-58_PsorghiRO10H11247_Genome.fasta	Puccinia sorghi strain RO10H11247
no	FungiDB	17	0	0	Apollo	INSDC	GCA_017301755.1	7.3	GenBank	Mar 09, 2021	yes	N/A	Pneumocystis wakefieldiae 2A	Pneumocystis wakefieldiae	2A	N/A	N/A	N/A	3223	2359	N/A	41	3182	10683	3182	N/A	0	N/A	N/A	N/A	N/A	N/A	FungiDb	FungiDB-58_Pwakefieldiae2A_Genome.fasta	Pneumocystis wakefieldiae 2A
no	FungiDB	0	169	0	Apollo	INSDC	GCA_014183025.1	34.63	RollinsLab	Feb 11, 2022	yes	N/A	Raffaelea lauricola RL4	Raffaelea lauricola	RL4	N/A	N/A	N/A	10461	5935	N/A	146	10315	150	10315	N/A	0	N/A	N/A	N/A	N/A	N/A	FungiDb	FungiDB-58_RlauricolaRL4_Genome.fasta	Raffaelea lauricola RL4
no	FungiDB	0	583	0	Apollo	INSDC	GCA_008704605.1	20.53	GenBank	Sep 26, 2019	yes	N/A	Trichomonascus ciferrii CBS 4856	Trichomonascus ciferrii	CBS 4856	N/A	828	N/A	6909	4842	N/A	6	6903	30	6903	N/A	6	N/A	N/A	N/A	N/A	N/A	FungiDb	FungiDB-58_TciferriiCBS4856_Genome.fasta	Trichomonascus ciferrii CBS 4856
